{
    "services": [
        {
            "id": "SerenataEnBogota",
            "serviceName": "Serenata en Bogotá",
            "serviceDescription": "Lorem ipsum dolor sit amet, consectetur adipisicing elit. Obcaecati delectus possimus excepturi! Nesciunt quo, provident veritatis, eius blanditiis laborum ducimus qui aut facilis, possimus officiis obcaecati repellat accusamus itaque perspiciatis.",
            "serviceImgs": [
                            {
                                "url":"serenataBogota.jpg",
                                "active":true
                            },
                            {   
                                "url":"serenataBogota2.jpg",
                                "active":false
                            }
                        ],
            "servicePrice": "$700.000"
        },
        {
            "id": "SerenatafueradeBogota",
            "serviceName": "Serenata fuera de Bogotá",
            "serviceDescription": "Lorem ipsum dolor sit amet consectetur adipisicing elit. Illo, perferendis nisi pariatur veniam deleniti explicabo blanditiis labore aliquid, odit autem neque dolorum quam quasi ratione voluptas laboriosam eum repudiandae libero.",
            "serviceImgs": [
                {
                    "url":"serenataOutsideCity.jpg",
                    "active":true
                }
            ],
            "servicePrice": "$700.000 mas transporte y viáticos"
        },
        {
            "id": "EventosCorporativos",
            "serviceName": "Eventos Corporativos",
            "serviceDescription": "Lorem ipsum dolor sit amet consectetur, adipisicing elit. Itaque eveniet ipsum soluta voluptatum. Ipsam minus, fugiat recusandae at veritatis nemo quas accusamus omnis sint, maiores doloremque aliquid. Voluptatibus, mollitia harum.",
            "serviceImgs":  [
                {
                    "url":"eventoCoporativo.jpg",
                    "active":true
                },
                {   
                    "url":"eventoCoporativo2.jpg",
                    "active":false
                }
            ],
            "servicePrice": "$900.000"
        },
        {
            "id": "EventosSinAnimoDeLucro",
            "serviceName": "Eventos sin animo de lucro",
            "serviceDescription": "Lorem ipsum dolor sit amet consectetur adipisicing elit. Temporibus aliquid vel ipsam reiciendis consequuntur esse laborum quos rem dolores tenetur ut repellendus, impedit id veritatis cupiditate, quis adipisci ducimus minus.",
            "serviceImgs": [],
            "servicePrice": "A convenir"
        },
        {
            "id": "FestivalesYConvocatorias",
            "serviceName": "Festivales y convocatorias",
            "serviceDescription": "Lorem ipsum dolor sit amet consectetur adipisicing elit. Adipisci sapiente provident impedit? Consequatur unde eaque tempora deleniti fugit fuga ex. Reprehenderit nisi ab sequi excepturi culpa in neque quia numquam!",
            "serviceImgs": [],
            "servicePrice": "A convenir"
        },
        {
            "id": "NovenasNavideñas",
            "serviceName": "Novenas Navideñas",
            "serviceDescription": "Lorem ipsum dolor sit, amet consectetur adipisicing elit. Cumque a quidem fugit ratione ab voluptate sunt similique dolorem odio fuga unde molestias excepturi officiis explicabo nisi ipsam, accusamus ea amet.",
            "serviceImgs": [],
            "servicePrice": "$500.000"
        }
    ]
}